…
The following data sets are used throughout this post. These data are sourced from the tsibbledata package, a part of the tidyverts.

Monthly retail turnover for department stores in Victoria, Australia

tsibbledata::aus_retail %>% 
  filter(
    Industry == "Department stores",
    State == "Victoria",
    year(Month) >= 2000
  ) %>% 
  select(Month, Turnover) -> victoria_dept_stores_tsbl

## # A tsibble: 228 x 2 [1M]
##       Month Turnover
##       <mth>    <dbl>
##  1 2000 Jan     228 
##  2 2000 Feb     196.
##  3 2000 Mar     224.
##  4 2000 Apr     261.
##  5 2000 May     265.
##  6 2000 Jun     299.
##  7 2000 Jul     206.
##  8 2000 Aug     240.
##  9 2000 Sep     251.
## 10 2000 Oct     270.
## # ... with 218 more rows

Quarterly sheep meat production in Victoria, Australia

tsibbledata::aus_livestock %>% 
  filter(State == "Victoria", Animal == "Sheep") -> victoria_sheep_tsbl

## # A tsibble: 228 x 2 [1M]
##       Month Turnover
##       <mth>    <dbl>
##  1 2000 Jan     228 
##  2 2000 Feb     196.
##  3 2000 Mar     224.
##  4 2000 Apr     261.
##  5 2000 May     265.
##  6 2000 Jun     299.
##  7 2000 Jul     206.
##  8 2000 Aug     240.
##  9 2000 Sep     251.
## 10 2000 Oct     270.
## # ... with 218 more rows

Monthly turnover for food retail in Victoria, Australia

tsibbledata::aus_retail %>% 
  filter(State == "Victoria", Industry == "Food retailing") %>% 
  select(Month, Turnover) -> victoria_food_retail_tsbl

victoria_food_retail_tsbl
## # A tsibble: 441 x 2 [1M]
##       Month Turnover
##       <mth>    <dbl>
##  1 1982 Apr     310.
##  2 1982 May     310.
##  3 1982 Jun     314.
##  4 1982 Jul     320.
##  5 1982 Aug     300.
##  6 1982 Sep     316.
##  7 1982 Oct     344.
##  8 1982 Nov     352.
##  9 1982 Dec     408.
## 10 1983 Jan     330.
## # ... with 431 more rows
…
