The rsample Package - Robert Lankford
…
Leave-One-Out Cross-Validation

Leave-one-out cross-validation (LOOCV) is a special case of k-fold cross-validation where k is equal to the number of observations in the training set. So each iteration results in a model trained on all but one of the observations and a performance metric calculated from the prediction of the single held-out observation. The resulting summarized performance metric can be thought of as the average (or median, maximum, or any aggregation metric you choose) performance across each observation individually.

The rsample package provides the loo_cv() function. The only argument is the data set.

cross_sect_loocv_rsplit <- loo_cv(cross_sect_train_tbl)

Printing out the resulting rset object prints that it is LOOCV, the split objects and the resample ids. Notice that, as expected, the split object shows that there is one observation (on the right side) held out on which to calculate a performance metric for each resample.

## # Leave-one-out cross-validation 
## # A tibble: 1,031 x 2
##    splits         id        
##    <list>         <chr>     
##  1 <split [1K/1]> Resample1 
##  2 <split [1K/1]> Resample2 
##  3 <split [1K/1]> Resample3 
##  4 <split [1K/1]> Resample4 
##  5 <split [1K/1]> Resample5 
##  6 <split [1K/1]> Resample6 
##  7 <split [1K/1]> Resample7 
##  8 <split [1K/1]> Resample8 
##  9 <split [1K/1]> Resample9 
## 10 <split [1K/1]> Resample10
## # ... with 1,021 more rows
…
We can do a Monte-Carlo cross-validation resample by using the mc_cv() function in the rsample package. The prop argument specifies how much of the data you want to go towards model training, and the times argument dictates how many resamples will be done. Note that again there is a strata argument for stratified random sampling. Again, setting a seed for random sampling is a good practice.

set.seed(1914)

cross_sect_monte_carlo_resplit <- mc_cv(
  data   = cross_sect_training_tbl,
  prop   = 0.7,
  times  = 50,
  strata = "Education"
)

Printing out the resulting rset object will tell you that it is a Monte-Carlo Cross-Validation, what the percentage split is, and how many resamples were taken. Additionally, you will again see the split objects and the resample ids.

## # Monte Carlo cross-validation (0.7/0.3) with 50 resamples  using stratification 
## # A tibble: 50 x 2
##    splits            id        
##    <list>            <chr>     
##  1 <split [724/307]> Resample01
##  2 <split [724/307]> Resample02
##  3 <split [724/307]> Resample03
##  4 <split [724/307]> Resample04
##  5 <split [724/307]> Resample05
##  6 <split [724/307]> Resample06
##  7 <split [724/307]> Resample07
##  8 <split [724/307]> Resample08
##  9 <split [724/307]> Resample09
## 10 <split [724/307]> Resample10
## # ... with 40 more rows
…
We can do a bootstrap resample by using the boostraps() function in the rsample package. The times argument is the number of bootstrap samples to take (analogous to the number of folds to create). For example, if times is 25, then a random sample, with replacement, that is the same size as the original data set will be taken 25 times. Note that again there is a strata argument for stratified random sampling and we should set a seed.

set.seed(1914)

cross_sect_bootstrap_rsplit <- bootstraps(
  data   = cross_sect_training_tbl,
  times  = 50,
  strata = "Education"
)

Printing out the resulting rset object will tell you that it is a Bootstrap sampling. Additionally, you will again see the split objects and the resample ids.

## # Bootstrap sampling using stratification 
## # A tibble: 50 x 2
##    splits           id         
##    <list>           <chr>      
##  1 <split [1K/374]> Bootstrap01
##  2 <split [1K/389]> Bootstrap02
##  3 <split [1K/376]> Bootstrap03
##  4 <split [1K/376]> Bootstrap04
##  5 <split [1K/378]> Bootstrap05
##  6 <split [1K/364]> Bootstrap06
##  7 <split [1K/381]> Bootstrap07
##  8 <split [1K/374]> Bootstrap08
##  9 <split [1K/384]> Bootstrap09
## 10 <split [1K/366]> Bootstrap10
## # ... with 40 more rows
…
Each of the original 10 splits had 30 bootstrap samples taken and placed in the inner_resamples column. THe first fold in the splits column has 927 observations in the analysis data set. Taking the inner resample for that first split shows 30 bootstrap splits, each with 927 observations in its analysis set, as would be expected.

cross_sect_nested_rsplit$inner_resamples[[1]]

## # Bootstrap sampling using stratification 
## # A tibble: 30 x 2
##    splits            id         
##    <list>            <chr>      
##  1 <split [926/339]> Bootstrap01
##  2 <split [926/341]> Bootstrap02
##  3 <split [926/344]> Bootstrap03
##  4 <split [926/339]> Bootstrap04
##  5 <split [926/346]> Bootstrap05
##  6 <split [926/337]> Bootstrap06
##  7 <split [926/329]> Bootstrap07
##  8 <split [926/330]> Bootstrap08
##  9 <split [926/332]> Bootstrap09
## 10 <split [926/344]> Bootstrap10
## # ... with 20 more rows

cross_sect_nested_rsplit %>% 
  select(inner_resamples) %>% 
  slice(1) %>% 
  unnest(inner_resamples) %>% 
  purrr::pluck(1, 1) %>% 
  analysis()

## # A tibble: 926 x 7
##    MonthlyRate   Age Education Gender YearsInCurrentR~ JobInvolvement
##          <int> <int> <ord>     <fct>             <int> <ord>         
##  1        8787    38 Bachelor  Male                  7 Medium        
##  2        3020    24 Bachelor  Male                  0 High          
##  3        3020    24 Bachelor  Male                  0 High          
##  4       11031    35 Doctor    Male                  8 High          
##  5       11031    35 Doctor    Male                  8 High          
##  6       19730    55 Bachelor  Female                0 High          
##  7       19730    55 Bachelor  Female                0 High          
##  8       19730    55 Bachelor  Female                0 High          
##  9       22656    36 Bachelor  Male                  5 Medium        
## 10       26278    35 Bachelor  Male                  4 Medium        
## # ... with 916 more rows, and 1 more variable: TotalWorkingYears <int>
…
